{
    "type": "mysql",
    "host": "localhost",
    "port": 3306,
    "username": "root",
    "password": ".nava446",
    "database": "mydatabase",
    "entities": ["src/db/entitys/*{.ts,.js}"],
    "seeds": ["src/db/seeds/**/*.seed.ts"],
    "factories": ["src/db/factories/**/*.factory.ts"],
    "synchronize": true
}